<?xml version="1.0" encoding="utf-8"?>
<!-- Generator: Adobe Illustrator 23.0.4, SVG Export Plug-In . SVG Version: 6.00 Build 0)  -->
<svg version="1.1" id="Laag_1" xmlns="http://www.w3.org/2000/svg" xmlns:xlink="http://www.w3.org/1999/xlink" x="0px" y="0px"
	 viewBox="0 0 150 113.9" style="enable-background:new 0 0 150 113.9;" xml:space="preserve">
<style type="text/css">
	.st0{fill:#461E46;}
	.st1{fill:#FFFFFF;}
	.st2{fill:#422C4F;}
	.st3{fill:#919120;}
	.st4{fill:#DADADA;}
	.st5{fill:#ECBF05;}
	.st6{fill:#A13728;}
	.st7{clip-path:url(#SVGID_2_);}
	.st8{clip-path:url(#SVGID_4_);}
	
		.st9{clip-path:url(#SVGID_6_);fill:none;stroke:#FFFFFF;stroke-width:2.0259;stroke-linecap:round;stroke-linejoin:round;stroke-miterlimit:10;}
	.st10{clip-path:url(#SVGID_8_);}
	.st11{clip-path:url(#SVGID_10_);}
	
		.st12{clip-path:url(#SVGID_12_);fill:none;stroke:#FFFFFF;stroke-width:2.4363;stroke-linecap:round;stroke-linejoin:round;stroke-miterlimit:10;}
	.st13{clip-path:url(#SVGID_14_);}
	.st14{clip-path:url(#SVGID_16_);}
	
		.st15{clip-path:url(#SVGID_18_);fill:none;stroke:#FFFFFF;stroke-width:2;stroke-linecap:round;stroke-linejoin:round;stroke-miterlimit:10;}
</style>
<g>
	<path class="st0" d="M148.7,42c-0.2-0.7-0.6-1.3-1.1-1.8c-0.4-0.4-1-0.6-1.8-0.9c-0.7-0.2-1.5-0.3-2.4-0.4c-0.3,0-0.7,0-1,0
		c-1.7,0-3.3,0.3-4.8,0.7c-0.1,0-0.2,0.1-0.3,0.1s-0.1,0-0.2,0.1l0.2-1.7c0-8.5,3.1-27-1.5-32.4c-5.4-6.9-21.6-4.6-29.3-4.6
		c-26.2,0-52.4,0-77.8,2.3C21.8,4.2,10.2,2.7,4.8,8.8c-6.2,6.9-3.1,24.7-2.3,33.9C3.3,62,1.7,82.8,4.1,102c2.3,16.9,15.4,10,30,7.7
		c15.4-2.3,31.6-3.9,47-3.1c14.6,0.8,31.6,7.7,40.8-4.6c8.5-10,8.5-24.7,12.3-35.4l0.6-5.1c0.5-0.3,0.9-0.5,1.2-0.7
		c2.5-1.6,3.1-3.5,3.2-4.5c0.2-0.1,0.4-0.2,0.6-0.2c2.2-0.9,5.5-4.4,8-8.6C149.3,45,149,43,148.7,42z"/>
	<g>
		<path class="st1" d="M23.6,39.8L23.6,39.8C23.6,39.9,23.6,39.9,23.6,39.8c0,0.1,0,0.2,0,0.3c0.1,1.1,1.8,0.7,1.8-0.2
			c0.3-4.9,0.5-9.8,0.6-14.8c0.7-2.2,1.7-4.2,3.2-5.9c4.4,4.9,2.1,14,2,19.9c0,1.2,1.9,1.2,1.9,0c0.1-6.8,2.6-16.8-3.3-21.9
			c-0.4-0.3-0.9-0.4-1.3,0c-1,1-1.8,2-2.4,3.2c0-1.3,0-2.7,0-4c0-1.2-1.9-1.2-1.9,0c0,2.8,0,5.7-0.1,8.5C22.8,29.6,23,35,23.6,39.8z
			"/>
		<path class="st1" d="M44.6,38.4c0,1.2,0,2.3,0,3.5s1.9,1.2,1.9,0c0-2.9,0-5.8,0-8.7c0-0.4,0-0.7,0-1c-0.1-1.2-1.9-1.2-1.9,0
			c0,0.3,0,0.5,0,0.8c-0.1,3-2,7.5-5.5,5.7c-5-2.6-0.2-7.8,3.7-7.6c1.2,0.1,1.2-1.8,0-1.9c-5.3-0.3-10.5,5.7-5.9,10.1
			C39.9,42.2,42.8,40.9,44.6,38.4z"/>
		<path class="st1" d="M63.2,27.6c0,2,0.2,4,0.2,6c0,1.7,0.3,6.2-1.8,6.8c-3.8,1.2-3.3-8.7-3.3-10.6c0-1.2-1.9-1.2-1.9,0
			c0,3.7-0.6,12.6,5,12.5c3,0,3.8-3.4,4-6.9c0.6,0.3,1.6-0.2,1.4-1.1c-0.6-2.3-1.3-4.6-1.8-7C64.8,26.3,63.2,26.5,63.2,27.6z"/>
		<path class="st1" d="M69.6,43.7c2.5,0.9,4-3.4,5-7.6c0,0.8,0.1,1.7,0.1,2.5c0,1.2,1.9,1.2,1.9,0c0-3.3-0.5-6.7-0.5-10
			c0-1.1-1.6-1.3-1.8-0.2c-0.6,2.3-1,4.6-1.6,6.9c-0.2,0.7-1.9,7.3-2.7,6.6c-1.5-1.3-1-5.4-1-7.1c0-2.2,0.3-4.4,0.3-6.6
			c0-1.2-1.9-1.2-1.9,0c0,3.1-0.4,6.1-0.3,9.2C67.2,39.4,67.3,42.9,69.6,43.7z"/>
		<path class="st1" d="M34.6,63.6c1.1-0.4,0.6-2.2-0.5-1.8c-2.9,1.1-6.4,1.2-9.3,0.3c-2-0.6-2.8-1.9-2.3-4c0.7-2.6,3.9-3.3,6.1-3.3
			c1.2,0,1.2-1.8,0-1.9c-2.5-0.1-5.4,0.6-6.9,2.8c-1.3,1.7-2,4.6-0.3,6.3C24.3,65.4,30.8,65,34.6,63.6z"/>
		<path class="st1" d="M43.3,65.3c1.1,0.5,1.6-1.4,0.5-1.8c-1.5-0.6-3-1.5-4.4-2.5c1.2-1.8,1.4-4.2,0.5-6.2
			c-1.1-2.2-3.8-1.3-4.8,0.4C32.4,59.6,40.2,64,43.3,65.3z M36.5,56.4c0.2-0.5,1.1-1.4,1.6-0.9c1,0.9,0.6,3-0.1,4.2
			c-0.5-0.5-0.9-1-1.2-1.5C36.5,57.6,36.3,57,36.5,56.4z"/>
		<path class="st1" d="M53,56.1c2.5-1,2,8.7,1.4,10c-0.4,1.1,1.4,1.6,1.8,0.5c1-2.7,1.6-12-2.6-12.4c-2.4-0.2-4.1,2.1-5.3,4.8
			c0-1.1-0.1-2.2-0.1-3.3c0-1.2-1.9-1.2-1.9,0c0,3.5,0.4,7-0.2,10.5c-0.2,1.2,1.5,1.7,1.8,0.5c0.4-1.7,0.9-3.4,1.5-5
			C50.1,59.9,51.2,56.9,53,56.1z"/>
		<path class="st1" d="M71,66.5c1.2-0.2,0.7-2-0.5-1.8c-3.4,0.5-7,1.2-7.2-3.5c0-1.6,0.3-3.2,0.6-4.8c1.2,0.1,2.4,0.2,3.5,0.7
			s2.1-1.1,0.9-1.6c-1.3-0.6-2.7-0.8-4.1-0.9c0.2-0.8,0.3-1.7,0.3-2.5c0-1.2-1.8-1.2-1.9,0c0,0.8-0.1,1.6-0.3,2.5
			c-1.1,0-2.2,0.1-3.3,0.1c-1.2,0-1.2,1.9,0,1.9c0.9,0,1.9-0.1,2.9-0.1c-0.6,2.7-1.1,5.4,0,7.9C63.7,67.9,68,67,71,66.5z"/>
		<path class="st1" d="M91,63.6c0.1-0.4,0.3-0.9,0.3-1.4c0.8,1.3,1.6,2.6,2.3,3.9c0.6,1.1,2.2,0.1,1.6-0.9c-1.1-2-2.6-4.1-3.6-6.3
			c0-2-0.3-4-0.8-5.7c-0.3-0.8-1.6-1-1.8,0c-0.4,2,0,3.9,0.7,5.7c0,0.8,0,1.5-0.1,2.2c-0.1,1.4-1.8,6.8-4,4.5
			c-1.2-1.3-1.4-3.9-1.5-5.6c-0.2-1.6-0.2-3.3-0.2-4.9c0-1.2-1.9-1.2-1.9,0c0,3.4-0.5,11.6,3.9,12.8C88.4,68.5,90.3,65.6,91,63.6z"
			/>
		<path class="st1" d="M37.8,89c1.1-0.6,0.1-2.2-0.9-1.6c-0.8,0.4-1.6,0.8-2.4,1.1c-2.1-4.6-3.8-9.5-3-11.2c0,0,0.8-10.1-5.6-2.6
			c0,0-15.5,7.2-18.6,6.3c0,0-4.8,2.4,0.4,1.6c0,0,17.3-6.2,17.5-3c0,0-2.1,6.1-4.3,11.5c-0.5,0.2-0.6,0.8-0.5,1.2
			c-1.5,3.6-3,6.6-3.8,7c0,0-2,5.4,1.5,1.2c3.5-4.2,0.3-0.3,0.3-0.3s1.6-3.4,3.6-7.3c4-0.3,8.2-0.8,12-2.2c1.2,2.2,2.3,4.4,3,6.1
			c0,0,1.4,6.3,2.4,1.6c0,0-2.1-3.8-4.2-8.2C36.2,89.8,37,89.4,37.8,89z M23.1,90.8c2.3-4.4,4.7-8.7,5.6-9.2c0,0,2.2,3.5,4.5,7.3
			C29.9,90.1,26.5,90.6,23.1,90.8z"/>
		<path class="st1" d="M54,79.2c-1.1,0-1.9,0.5-2.5,1.2c-0.6-0.3-1.4,0-1.4,0.8c0,4-0.4,8,0.3,12c0.2,1.1,1.9,0.8,1.8-0.2
			c0-1.8-0.2-3.5-0.2-5.2c0-1.8-0.2-5.2,1.4-6.5c3.1-2.3,3.4,8.6,3.4,10c0,1.2,1.9,1.2,1.9,0C58.8,87.7,59.2,79.1,54,79.2z"/>
		<path class="st1" d="M66.9,78.1c-1,0-1.7,0.4-2.3,0.9c0-1.4,0-2.7-0.1-4.1c0-1.2-1.9-1.2-1.9,0c0,3.6,0.1,7.1,0.3,10.7
			c0,1.4,0.1,2.8,0.2,3.9c0,0.4,0,0.8,0.1,1.2c0.1,1.2,1.9,1.2,1.9,0c0-0.3,0-0.7,0-1c-0.1-1.9-0.2-3.7-0.2-5.6
			c0.1-1.4,0.4-2.7,1.3-3.7c0.7-0.8,2-0.4,2.7,0.2c0.9,0.9,1.1,2.6,1.2,3.8c0.2,2.1,0.2,4.3-0.2,6.3c-0.2,1.2,1.6,1.7,1.8,0.5
			C72.3,87.2,72.9,78,66.9,78.1z"/>
		<path class="st1" d="M84.3,74.7c-4.1-1.5-7.3,1.4-8.4,5.1c-0.4,1.4-0.5,2.8-0.3,4.3c-0.8,0.3-0.7,1.8,0.3,1.8H76
			c0,0.1,0.1,0.2,0.1,0.3c0.8,2,2.8,2.9,4.6,3.8c1.1,0.5,2-1.1,0.9-1.6c-1.7-0.8-2.8-1.6-3.5-2.8c2.7-0.7,5-2.5,6.7-4.7
			C86.1,79.1,87,75.7,84.3,74.7z M82.4,80.8c-1.3,1.5-3,2.6-5,3c-0.1-0.6-0.1-1.2-0.1-1.9c0.2-3.3,2.4-6.5,6.1-5.6
			C85.5,76.9,83,80.1,82.4,80.8z"/>
		<path class="st1" d="M98.4,77.4c-2.7,1.6-2.2,5.3-1.9,8.5c-0.9-2-1.7-4.1-3-5.9c-0.3-0.4-0.8-0.6-1.3-0.3
			c-1.2,0.7-2.1,1.6-2.6,2.7c0-1.1,0-2.3,0-3.4c0-1.2-1.9-1.2-1.9,0c0,5.1-0.2,10.2,0,15.3c0,1,1.6,1.3,1.8,0.2
			c0.9-3.6-0.4-10,2.8-12.7c1.7,2.7,2.6,5.8,4.2,8.7c0.4,0.7,1.5,0.6,1.7-0.2c0.6-3-0.4-6.2,0.1-9.3c0.4-2.7,2.4-2,3,0.3
			c0.6,2.1,0.3,4.5,0.3,6.7c0,1.2,1.9,1.2,1.9,0c0-2.7,0.2-5.5-0.7-8.2C102.3,78.1,100.3,76.2,98.4,77.4z"/>
		<path class="st1" d="M147.3,42.5c-0.2-0.5-0.4-0.9-0.7-1.2c-0.2-0.2-0.6-0.4-1.2-0.5c-0.6-0.2-1.3-0.3-2.1-0.3c-0.3,0-0.6,0-0.9,0
			c-1.5,0-3,0.2-4.4,0.7c-0.1,0-0.2,0.1-0.3,0.1c-2.8,1-6.1,3-8.8,4.7c-1,0.6-2,1.2-2.7,1.7c-2.9,1.7-9.8,5.4-12.3,6.5
			c-1.5,0.6-2.2,1.5-2.4,2.3v0.2c-0.6-1.6-1.7-2.7-3.3-2.5c-1.6,0.2-2.6,1.5-3.1,3.2c-0.2-1.6-0.5-3.2-1.1-4.8
			c-0.1-0.4-0.5-0.7-0.9-0.7c-2.5,0.2-3.8,1.4-4.6,3c0-0.4,0-0.7,0-1.1c0-1.2-1.9-1.2-1.9,0c0,3.5,0,7,0.5,10.5
			c0.1,0.9,1.7,0.9,1.8,0c0.6-3.2-0.6-9.5,3.4-10.5c1.1,4.1,1.1,8.3,2,12.5c0.2,1.1,1.8,0.8,1.8-0.2c0-3-0.3-6.8,1.3-9.5
			c1.4-2.4,2.4,2.7,2.6,3.5c0.3,1.7,0.4,3.5,0.5,5.3c0,1.2,1.9,1.2,1.9,0s0-3.7-0.4-6c1.1,1.4,3.5,3.3,4.9,4
			c1.8,0.9,3.6,1.4,5.4,1.4c0.7,0,1.3-0.1,2-0.2c0.3-0.1,0.7-0.2,1.2-0.3c3.1-1,8.2-3.5,9.6-4.4c2.1-1.4,2.5-2.9,2.5-3.5v-0.2
			c0.1-0.6,0.1-0.6,1.5-1.1c1.9-0.7,5-4.2,7.3-8C147.8,44.7,147.5,43.2,147.3,42.5z M143.2,41.2c0.2,0.3,0.6,0.8,0.8,1.4
			c0.3,0.9,0.1,1.8-0.6,2.5c-1.5,0.2-2.8,0.5-3.4,0.6l0,0l0,0l0,0l-0.2-0.2l0,0c-0.4-0.6-0.9-1.4-1.3-1.9
			C139.7,43.1,142.2,41.8,143.2,41.2z M136,48.6l3.5-2.2l0,0c0,0.1,0.1,0.3,0,0.5c-0.2,0.5-0.7,2.7-1,3.8h-3.9L134,50L136,48.6z
			 M134,49.1c0.1-0.5,0.3-1.1,0.4-1.7c0.3-1.3,0.6-2.3,0.8-2.6c0.3-0.1,1.4-0.6,2.2-0.9c0.2-0.1,0.3-0.1,0.4-0.1c0.6,1,1,1.6,1.3,2
			l-3.6,2.2L134,49.1z M138,41.8c0.1,0,0.2-0.1,0.2-0.1c1.1-0.4,2.4-0.6,3.6-0.6c-2.5,1.3-3.5,1.7-3.9,1.9l0,0
			c-0.2,0-0.4,0.1-0.8,0.2c-0.9,0.3-2.3,0.9-2.5,1c-0.1,0.1-0.1,0.1-0.2,0.2c-0.1,0-0.2,0-0.3,0s-0.2,0-0.2,0
			c-0.1-0.1-0.3-0.2-0.5-0.4C135.3,42.9,136.8,42.2,138,41.8z M132.8,44.4c0.2,0.2,0.5,0.5,0.8,0.7c0.2,0.1,0.4,0.1,0.6,0.1
			c-0.2,0.5-0.3,1.2-0.5,2c-0.2,1-0.4,1.9-0.5,2.4l-3.9,0.2c0.3-0.5,0.5-1.2,0.7-2.2l1.9-2.7C132.2,44.7,132.5,44.5,132.8,44.4z
			 M133.3,53.9L133.3,53.9l2.9,1c-0.6,0.2-1.3,0.4-1.9,0.6c-0.7,0.2-1.4,0.5-2,0.6l-1,0.3c-0.2,0.1-0.4,0.1-0.4,0.1h-0.1
			c-0.2,0.1-0.6,0.2-1.1,0.3l-1.4-2C130.9,54.5,132.5,54.2,133.3,53.9z M125,54.6l-2,0.2l-0.8-0.9c0.8-0.5,1.6-1.2,2.2-1.7
			c0.3-0.3,0.7-0.6,0.9-0.7c1.6,1.1,3.5,1.9,5.8,2.2C128.5,54.2,125.1,54.6,125,54.6z M133.1,53.1c-0.1,0-0.3,0-0.5,0
			c-0.6,0-1.3-0.1-1.9-0.2c-1.8-0.3-3.3-0.8-4.6-1.7c1.2-0.3,2-0.5,2.3-0.6c0.1,0,0.1-0.1,0.2-0.1l4.5-0.3h0.1l0.7,0.9L133.1,53.1z
			 M126.7,48.2c0.8-0.4,1.7-1,2.7-1.7c0.3-0.2,0.6-0.4,0.9-0.6l-0.9,1.3l0,0v0.1c-0.2,1.4-0.7,2.4-1.1,2.5c-0.5,0.2-2.4,0.7-4.4,1.2
			c-2.1,0.6-4.3,1.2-5.1,1.4h-0.1c-0.1,0-0.2,0.1-0.3,0.1C121.4,51.1,125.1,49.1,126.7,48.2z M118.8,53.3L118.8,53.3
			c0.8-0.3,2.8-0.8,4.8-1.3c-0.7,0.7-1.6,1.5-2.6,1.8c-0.1,0-0.3,0.1-0.5,0.1c-1.5,0.2-4.4,0.9-6.5,1.5
			C115.6,54.6,117.6,53.7,118.8,53.3z M120.7,54.6c0.2,0,0.4-0.1,0.6-0.1c0.1,0,0.2-0.1,0.3-0.1l0.6,0.6c-1.8,0.2-3.8,0.4-4.2,0.5
			c-0.3,0.1-1.8,0.3-4.2,0.7C115.8,55.6,119.1,54.8,120.7,54.6z M118.1,56.2c0.7-0.1,7-0.8,7-0.8s1.1-0.1,2.5-0.4l1.4,2.1
			c-1.5,0.3-3.2,0.7-3.6,0.8h-0.2c-1,0.2-2.7,0.5-3.6,0.4h-0.1c-0.6-0.1-2.3-0.3-3.3-0.4c-2.4-0.3-5.2-0.4-6-0.5c0-0.1,0-0.2,0-0.3
			C113.3,57,117.5,56.3,118.1,56.2z M125.5,63.3c-0.4,0.1-0.8,0.2-1.1,0.3c-2.2,0.5-4.5,0.1-6.9-1.1c-1.6-0.8-4.3-3.2-5-4.3
			c1.1,0.1,3.6,0.3,5.7,0.5c1.5,0.2,2.8,0.3,3.3,0.4c1.6,0.7,3.7,3.2,4.4,4.1C125.7,63.2,125.6,63.3,125.5,63.3z M126.6,62.9
			c-0.5-0.7-2.2-2.7-3.8-3.9c0.9-0.1,1.9-0.3,2.5-0.4c0.3,0,0.5-0.1,0.6-0.1c0.2,0,1.3,0.5,2.9,1.4c0.7,0.4,1.5,0.9,2,1.2
			C129.2,61.8,127.8,62.5,126.6,62.9z M137.1,56c-0.1,0.5-0.4,1.8-2.2,3c-0.6,0.4-1.9,1.1-3.4,1.8c-1.9-1.2-3.4-2-4.4-2.5
			c0.7-0.2,1.6-0.4,2.3-0.5l0.2-0.1c0.7-0.2,1.1-0.3,1.4-0.4c0.1,0,0.1,0,0.2-0.1c0,0,0.2-0.1,0.3-0.1l1-0.3c0.6-0.2,1.3-0.4,2-0.6
			c1.3-0.4,2.2-0.7,2.6-0.9C137.1,55.5,137.1,55.7,137.1,56z M139,54c-0.6,0.2-1,0.4-1.3,0.6l-3.4-1.1l-0.5-0.2l0.8-1.8h4.2l4.6-1.5
			C141.8,52.1,140.1,53.6,139,54z M146,46.4c-0.5,0.9-1.1,1.7-1.7,2.6l-4.9,1.6c0.3-1.5,0.7-3.1,0.9-3.4c0.1-0.2,0.1-0.5,0.1-0.7
			c0.9-0.2,3-0.7,5-0.7c0.3,0,0.6,0,0.9,0C146.1,46,146,46.2,146,46.4z M146.5,45.2c-0.4,0-0.8-0.1-1.2-0.1c-0.3,0-0.6,0-0.9,0
			c0.7-1,0.6-2,0.3-2.7c-0.2-0.5-0.4-0.9-0.6-1.2c0.4,0.1,0.8,0.1,1.1,0.2c0.5,0.1,0.8,0.3,0.8,0.4c0.2,0.2,0.4,0.5,0.5,0.9
			C146.8,43.4,146.8,44.3,146.5,45.2z"/>
		<path class="st1" d="M36.5,27.2c0.1,0.1-0.1,0.2,0,0.2s0.1,0,0.3-0.1c0.2,0,0.4,0,0.8,0c0.4,0,0.8-0.2,0.8-0.2
			c0.2,0,0.5,0.1,0.7,0.1s0.5,0.1,0.7,0.2s0.5,0.1,0.6,0.1s0.4,0,0.5,0.1c0.1,0,0.2,0,0.2,0s0.3,0,0.4,0c0.1,0,0.2,0,0.2,0
			c0.1,0,0.3,0,0.4,0c0.1,0,0.1,0,0.1,0s0.2,0,0.3,0s0.2-0.1,0.2-0.1s0.1,0,0.2,0c0.1,0,0.2,0,0.2,0s0.2,0,0.3,0s0.2-0.1,0.4-0.1
			c0.1,0,0.3-0.1,0.4,0c0.1,0,0.1-0.1,0.1-0.1s0.2-0.1,0.3-0.1c0.1-0.1,0.4-0.1,0.5-0.1s0.2,0,0.3,0s0.3-0.2,0.5-0.2
			c0.1-0.1,0.3-0.1,0.4-0.1c0.1,0,0.1-0.1,0.1-0.1s0.2,0,0.4-0.1c0.1,0,0.1-0.1,0.1-0.1c0.1,0,0.3-0.1,0.4-0.1
			c0.1,0,0.1-0.1,0.2-0.1c-0.2,4.1-0.2,8.2,0.7,12.1c1,4.5,5.1,2.2,7.6,0.4c1-0.7,0-2.3-0.9-1.6c-0.7,0.5-3.5,3-4.4,1.8
			c-1.2-1.6-0.8-4.7-0.9-6.5c-0.1-2.3,0-4.6,0-6.9c0,0,0,0,0.1-0.1c0.1,0,0.3-0.1,0.4-0.1c0.1,0,0.1-0.1,0.1-0.1s0.2,0,0.3-0.1
			c0.1,0,0.1-0.1,0.1-0.1S50.9,25,51,25s0-0.1,0-0.1s0.3-0.1,0.4-0.1c0.1,0,0.1-0.1,0.1-0.1s0.3-0.1,0.4-0.1c0.1-0.1,0-0.1,0-0.1
			l0.4-0.1c0.1-0.1,0-0.1,0-0.1s0.2-0.1,0.3-0.1s0.1-0.1,0.1-0.1c0.2-0.1,0.6-0.3,0.7-0.3c0.1-0.1,0.1-0.1,0.1-0.1s0.3-0.1,0.4-0.2
			c0.1,0,0.1-0.1,0.1-0.1s0.3-0.1,0.5-0.2c0.1,0,0.1-0.2,0.1-0.2c0.1-0.1,0.5-0.3,0.6-0.3c0.1-0.1,0-0.1,0-0.1s0.3-0.1,0.3-0.2
			s0.2-0.1,0.3-0.2c0.1,0,0-0.2,0-0.2c0.1-0.1,0.3-0.1,0.4-0.2c0.1-0.1,0.2-0.1,0.3-0.1s0-0.1,0-0.1c0.2-0.1,0.5-0.2,0.6-0.2
			s0.1-0.1,0.1-0.1c0.2-0.1,0.3-0.2,0.4-0.2c0.1,0,0-0.1,0-0.1c0.1-0.1,0.3-0.1,0.4-0.2c0.1-0.1,0-0.1,0-0.1s0.3-0.2,0.4-0.2
			c0.1,0,0-0.1,0-0.1s0.2-0.2,0.3-0.2s0-0.1,0-0.1s0.3-0.1,0.4-0.2c0.1-0.1,0-0.1,0-0.1s0.1-0.1,0.2-0.1c0.1,0,0.2-0.1,0.3-0.2
			c0.1,0,0-0.1,0-0.1s0.3-0.1,0.4-0.2c0.1,0,0.1-0.1,0.1-0.1s0.2-0.1,0.3-0.2c0.1,0,0.1-0.2,0.1-0.2s0.2-0.2,0.4-0.2
			c0.1,0,0-0.2,0-0.2c0.1-0.1,0.2-0.1,0.3-0.2c0.1,0,0-0.2,0-0.2s0.2-0.2,0.3-0.2s0-0.1,0-0.1s0.1-0.1,0.2-0.2C62,17,62,17,62,17
			s0.1-0.1,0.2-0.2s0.1-0.2,0.1-0.2c0.1-0.1,0.2-0.3,0.3-0.3c0.1-0.1,0.1-0.1,0.1-0.2s0.2-0.3,0.4-0.3c0.1,0,0.1-0.1,0.1-0.1
			c0.1-0.1,0.3-0.3,0.4-0.3c0.1-0.1,0.1-0.2,0.2-0.3c0.1-0.1,0.3-0.2,0.3-0.4c0-0.1,0.2-0.2,0.3-0.3c0.1-0.1,0.2-0.3,0.3-0.5
			c0.1-0.1,0.2-0.3,0.2-0.3c0-0.1-0.1-0.1-0.2,0s-0.1,0.1-0.2,0.3c-0.1,0.1-0.2,0.2-0.2,0.2s-0.1,0.1-0.2,0.2
			c-0.1,0.1-0.3,0.2-0.5,0.4s-0.4,0.3-0.5,0.4c-0.1,0.1-0.3,0.2-0.3,0.2s-0.1,0-0.2,0c-0.1,0.1-0.2,0.1-0.3,0.2
			c-0.1,0.1-0.3,0.1-0.4,0.2c-0.1,0.1-0.2,0.1-0.2,0.1c-0.1,0-0.2,0.1-0.4,0.2c-0.1,0.1-0.4,0.2-0.4,0.2s-0.1,0-0.1,0.1
			c-0.1,0.1-0.3,0.1-0.3,0.1s-0.1,0-0.2,0c-0.1,0.1-0.3,0.2-0.3,0.2s-0.1,0-0.3,0.1c-0.1,0.1-0.4,0.2-0.4,0.2s-0.1-0.1-0.2,0
			c0.1,0.1-0.1,0.2-0.1,0.2s0-0.1-0.1,0s-0.3,0.1-0.3,0.1s-0.1-0.1-0.2,0c-0.1,0.1-0.2,0.1-0.2,0.1s-0.1-0.1-0.2,0
			c-0.1,0.1-0.2,0.1-0.2,0.1s-0.1-0.1-0.2,0c-0.1,0.1-0.4,0.1-0.4,0.1s-0.1,0-0.2,0c-0.1,0.1-0.3,0.1-0.4,0.1
			c-0.1,0-0.3,0.1-0.3,0.1s-0.1-0.1-0.2,0c-0.1,0.1-0.4,0.2-0.4,0.2s-0.1-0.1-0.2,0C55.4,18,55.3,18,55.3,18s-0.1-0.1-0.2,0
			c-0.1,0.1-0.2,0.1-0.2,0.1s-0.1,0-0.2,0.1c-0.1,0.1-0.5,0.1-0.6,0.2s-0.3,0.2-0.3,0.2h-0.1c-0.1,0-0.3,0.1-0.4,0.2
			c0,0.2-0.3,0.3-0.3,0.3s0-0.1-0.1,0s-0.2,0.1-0.2,0.1l-0.1-0.1c-0.1,0.1-0.2,0.1-0.2,0.1l-0.1-0.1c-0.1,0-0.3,0.2-0.3,0.2
			s0-0.1-0.1,0s-0.2,0.2-0.2,0.2h-0.2c-0.1,0.1-0.3,0.1-0.4,0.1c-0.1,0-0.2,0.2-0.2,0.2s0-0.1-0.1,0c-0.1,0-0.2,0.1-0.2,0.1
			s-0.1-0.1-0.2,0c-0.1,0.1-0.2,0.2-0.3,0.2c0-1,0-2,0-3c0-1.2-1.9-1.2-1.9,0s0,2.4-0.1,3.7l0,0C48,20.9,47.8,21,47.8,21
			s0-0.1-0.2,0c-0.1,0.1-0.4,0.2-0.4,0.2c-0.1-0.1-0.2,0-0.2,0s-0.1,0-0.2,0.1c-0.1,0.1-0.3,0.2-0.3,0.2s-0.1-0.1-0.2,0
			c-0.1,0.1-0.3,0.2-0.3,0.2s0-0.1-0.1,0s-0.3,0.2-0.3,0.2s-0.1-0.1-0.2,0c-0.1,0.1-0.2,0.2-0.2,0.2s-0.1-0.1-0.1,0
			c-0.1,0.1-0.2,0.1-0.2,0.1s-0.1-0.1-0.2,0c-0.1,0.1-0.3,0.2-0.3,0.2s0-0.1-0.1,0c-0.1,0-0.3,0.2-0.3,0.2s-0.1-0.1-0.2,0.1
			c-0.1,0.1-0.5,0.3-0.6,0.3c-0.1,0.1-0.3,0.2-0.3,0.2s-0.1-0.1-0.3,0.1c-0.1,0.1-0.2,0.2-0.4,0.3c-0.2,0.1-0.5,0.2-0.6,0.3
			c-0.2,0.1-0.3,0.1-0.3,0.2C41.1,24,41,24,41,24l-0.2,0.2c0,0-0.1,0-0.2,0.1c-0.1,0.1-0.2,0.2-0.2,0.3c-0.1,0.1-0.1,0.1-0.2,0.2
			c-0.1,0.1-0.3,0.2-0.4,0.3c-0.1,0.1-0.2,0.2-0.3,0.3c-0.1,0.1-0.2,0.3-0.2,0.3s-0.2,0-0.2,0.2c0,0.1-0.2,0.2-0.3,0.4
			c-0.2,0.2-0.2,0.3-0.3,0.4s-0.1,0.2-0.1,0.2c-0.5,0.2-0.8,0.2-1.1,0.2S36.7,27,36.5,27c-0.1,0-0.2,0-0.2,0.1
			C36.3,27.1,36.4,27.1,36.5,27.2z"/>
		<path class="st1" d="M41.7,82.8c-0.6,0.6-1,1.3-1.3,2c-0.1-1-1.7-1-1.7,0.1c0,3.3,1.4,6.4,1.5,9.7c0,1.1,1.8,1.1,1.8,0
			c-0.1-2.2-0.3-4.3-0.2-6.5c0.1-1.4,0.4-3,1.3-4.1c0.9-1.1,4.2-1.7,4,0.6c-0.1,1.1,1.7,1.1,1.8,0C49.1,80.6,43.8,80.7,41.7,82.8z"
			/>
		<path class="st1" d="M80.5,40.2c-0.1-2.7-0.2-5.5,0.5-8.2c0.4-1.6,1.5-2.9,3-3.5c0.9-0.3,1.9-0.4,2.8-0.4c0.4,0,0.2,2.1,0.2,2.3
			c0.1,1.1,1.8,1.1,1.8,0c-0.1-1.9,0.6-3.9-2-4.1c-2.1-0.1-4.1,0.5-5.7,1.9c-0.5,0.5-0.9,1-1.2,1.6c0-0.6-0.1-1.1-0.1-1.7
			c0-1.1-1.8-1.1-1.8,0c0,4,0.7,8,0.7,12C78.8,41.4,80.5,41.4,80.5,40.2z"/>
		<path class="st1" d="M76.9,55c2.2-1.6,2.7,1.5,2.8,2.9c0.1,1.1,1.8,1.1,1.8,0c-0.3-3.7-2.4-6.8-6.1-4c-1,0.8-1.7,1.8-2.2,2.9
			c-0.4-0.8-1.8-0.7-1.7,0.3c0.3,2.7,0.4,5.4,0.6,8.1c0,0.3,0,0.6,0.1,0.8c0.1,1.1,1.9,1.1,1.8,0c-0.2-2.4-0.2-4.7,0.3-7
			C74.6,57.5,75.5,56,76.9,55z"/>
	</g>
</g>
<path class="st2" d="M-256.4-493.5c-25.5-32.8-102.2-21.9-138.6-21.9c-124,0-248.1,0-368.5,10.9c-32.8,3.6-87.6-3.6-113.1,25.5
	c-29.2,32.8-14.6,116.8-10.9,160.5c3.6,91.2-3.6,69.7,7.3,160.9c10.9,80.3,73,47.4,142.3,36.5c73-10.9,149.6-18.2,222.6-14.6
	c69.3,3.6,201.6,36.5,245.4-21.9c40.1-47.4,48.9-54.3,33-182.8l0,0C-237.1-380.4-234.5-467.9-256.4-493.5z"/>
<path class="st1" d="M-1037.7-2130.4c0-124,0-248.1-14-368.5c-4.7-32.8,4.7-87.6-32.7-113.1c-42-29.2-149.5-14.6-205.6-10.9
	c-116.8,3.6-89.3-3.6-206.1,7.3c-102.8,10.9-60.7,73-46.7,142.3c14,73,23.4,149.6,18.7,222.6c-4.7,69.3-46.7,201.6,28,245.4
	c60.7,40.1,69.5,48.9,234.1,33c51.5-0.2,163.6,2.4,196.3-19.5C-1023.7-2017.3-1037.7-2094-1037.7-2130.4z"/>
<path class="st3" d="M-4340.2-1114.5V-47.3h911.4v-1067.1L-4340.2-1114.5L-4340.2-1114.5z M-3456.5-317
	c-31.2,116.2-20.9,202.6-174.1,243.3c-46.4,12.4-46.4,12.4-225.5,17.9c-86,5.5-326.4-17.9-401.9-38
	c-55.3-14.7-58.6-164.6-69.2-254.5c-21.4-182.3,2.2-238.6,2.2-426.4c0-55.2-20.1-180.8,60.3-274.6c85.8-73.3,306.6-44.2,398.8-40.1
	c248.9-23.8,260.3-27.4,362.5,8.9c114.6,66.2,56.3,337,49.1,442C-3461.4-528-3425.4-432.9-3456.5-317z"/>
<path class="st4" d="M-4340.2-2266.8v1067.1h911.4v-1067.1H-4340.2z M-3456.5-1469.4c-31.2,116.2-20.9,202.6-174.1,243.3
	c-46.4,12.4-46.4,12.4-225.5,17.9c-86,5.5-326.4-17.9-401.9-38c-55.3-14.7-58.6-164.6-69.2-254.5c-21.4-182.3,2.2-238.6,2.2-426.4
	c0-55.2-20.1-180.8,60.3-274.6c85.8-73.3,306.6-44.2,398.8-40.1c248.9-23.8,260.3-27.4,362.5,8.9c114.6,66.2,56.3,337,49.1,442
	C-3461.4-1680.4-3425.4-1585.3-3456.5-1469.4z"/>
<path class="st1" d="M-1742.4-2509.2c-25.5-32.8-102.2-21.9-138.6-21.9c-124,0-248.1,0-368.5,10.9c-32.8,3.6-87.6-3.6-113.1,25.5
	c-29.2,32.8-14.6,116.8-10.9,160.5c3.6,91.2-3.6,189.7,7.3,280.9c10.9,80.3,73,47.4,142.3,36.5c73-10.9,179.6-18.2,252.6-14.6
	c69.3,3.6,167.8,0.8,193.4-21.9c40-47.3,47.6-187.5,42.8-302.7C-1735.6-2367.8-1720.5-2483.7-1742.4-2509.2z"/>
<path class="st1" d="M-1293.2-534c-51.7,0-86.1,1.9-90-70.4c-1-18.1-6.4-67.3,2.1-81.4c11.8-19.7,47.4-18.4,65.4-19.2
	c118.2-5.5,235.1,3.4,351.4,3.4c37.7,0,96.9-8.7,130.2,13.6c32.2,21.6,24,71.3,19.5,110c-8.2,69.2-174.4,29.8-253.3,38.4
	c-10.7,1.5-24.4-0.4-38.4-1c-32.1,0-33.1,0-65.3,7.6C-1208.9-524.2-1257.4-532.5-1293.2-534"/>
<path class="st2" d="M-1655.6,197.8c-51.7,0-86.1,1.9-90-70.4c-1-18.1-6.4-67.3,2.1-81.4c11.8-19.7,47.4-18.4,65.4-19.2
	c118.2-5.5,235.1,3.4,351.4,3.4c37.7,0,96.9-8.7,130.2,13.6c32.2,21.6,24,71.3,19.5,110c-8.2,69.2-174.4,29.8-253.3,38.4
	c-10.7,1.5-24.4-0.4-38.4-1c-32.1,0-33.1,0-65.3,7.6C-1571.3,207.6-1619.8,199.3-1655.6,197.8"/>
<path class="st5" d="M-3144.7-811.6c-51.7,0-86.1,1.9-90-70.4c-1-18.1-6.4-67.3,2.1-81.4c11.8-19.7,47.4-18.4,65.4-19.2
	c118.2-5.5,235.1,3.4,351.4,3.4c37.7,0,96.9-8.7,130.2,13.6c32.2,21.6,24,71.3,19.5,110c-8.2,69.2-174.4,29.8-253.3,38.4
	c-10.7,1.5-24.4-0.4-38.4-1c-32.1,0-33.1,0-65.3,7.6C-3060.4-801.8-3108.9-810.1-3144.7-811.6"/>
<path class="st1" d="M-3144.7-1031.5c-51.7,0-86.1,1.9-90-70.4c-1-18.1-6.4-67.3,2.1-81.4c11.8-19.7,47.4-18.4,65.4-19.2
	c118.2-5.5,235.1,3.4,351.4,3.4c37.7,0,96.9-8.7,130.2,13.6c32.2,21.6,24,71.3,19.5,110c-8.2,69.2-174.4,29.8-253.3,38.4
	c-10.7,1.5-24.4-0.4-38.4-1c-32.1,0-33.1,0-65.3,7.6C-3060.4-1021.7-3108.9-1030-3144.7-1031.5"/>
<path class="st2" d="M-3145.5-582.7c-25.3,0-64.1,10.5-79.6-18.7c-15.3-28.9-20.7-83.2-17.4-117.6c3.6-37.8,53-35.5,79.1-35.5
	c76.9,0,156.1-16.1,232.4-7.9c25.1,2.7,48.5,13.6,73.9,13.5c17-0.1,34.3-1,51.4,0c16.1,0.9,31.9,5.8,48.6,3.8
	c12.8-1.5,27.1-7.1,40.7-3.9c26.3,6.2,55.2,31.9,57.9,63.5c4.1,48.9-5.1,83.1-49.7,86c-79.6,5.1-157.7,11.2-238.2,11.2
	C-3014.3-588.3-3080.3-606.1-3145.5-582.7"/>
<path class="st3" d="M-3081.5-508.1c-9.8-12.7-39.2-8.4-53.3-8.4c-47.6,0-14.7,0-60.9,4.2c-12.7,1.4-33.6-1.4-43.4,9.8
	c-11.2,12.7-5.7,44.9-4.2,61.6c1.4,35.1-1.4,26.8,2.8,61.8c4.2,30.9,28,18.2,54.6,14c28-4.2,15.3-3,43.3-1.6
	c26.6,1.4,38.9,10,55.8-12.3c15.4-18.2,18.7-20.8,12.7-70.2l0,0C-3074-464.6-3073.1-498.2-3081.5-508.1z"/>
<path class="st6" d="M-2888.7-508.1c-9.8-12.7-39.2-8.4-53.3-8.4c-47.6,0-14.7,0-60.9,4.2c-12.7,1.4-33.6-1.4-43.4,9.8
	c-11.2,12.7-5.7,44.9-4.2,61.6c1.4,35.1-1.4,26.8,2.8,61.8c4.2,30.9,28,18.2,54.6,14c28-4.2,15.3-3,43.3-1.6
	c26.6,1.4,38.9,10,55.8-12.3c15.4-18.2,18.7-20.8,12.7-70.2l0,0C-2881.3-464.6-2880.3-498.2-2888.7-508.1z"/>
<g>
	<g>
		<defs>
			
				<rect id="SVGID_1_" x="-694.9" y="190.7" transform="matrix(0.9999 -1.010562e-02 1.010562e-02 0.9999 -2.0009 -5.3094)" width="337" height="9.3"/>
		</defs>
		<clipPath id="SVGID_2_">
			<use xlink:href="#SVGID_1_"  style="overflow:visible;"/>
		</clipPath>
		<g class="st7">
			<g>
				<defs>
					
						<rect id="SVGID_3_" x="-694.9" y="190.7" transform="matrix(0.9999 -1.010562e-02 1.010562e-02 0.9999 -2.0009 -5.3094)" width="337" height="9.3"/>
				</defs>
				<clipPath id="SVGID_4_">
					<use xlink:href="#SVGID_3_"  style="overflow:visible;"/>
				</clipPath>
				<g class="st8">
					<g>
						<defs>
							
								<rect id="SVGID_5_" x="-1273.1" y="-102.1" transform="matrix(0.9999 -1.010562e-02 1.010562e-02 0.9999 -2.8875 -7.6776)" width="1023.9" height="768"/>
						</defs>
						<clipPath id="SVGID_6_">
							<use xlink:href="#SVGID_5_"  style="overflow:visible;"/>
						</clipPath>
						<path class="st9" d="M-694,193.4l226.2-2.3c36.9-0.4,72.9,6.9,108.8,6.2"/>
					</g>
				</g>
			</g>
		</g>
	</g>
</g>
<g>
	<g>
		<defs>
			
				<rect id="SVGID_7_" x="-688.3" y="328.4" transform="matrix(0.9994 -3.383328e-02 3.383328e-02 0.9994 -11.7087 -17.4442)" width="334" height="17.6"/>
		</defs>
		<clipPath id="SVGID_8_">
			<use xlink:href="#SVGID_7_"  style="overflow:visible;"/>
		</clipPath>
		<g class="st10">
			<g>
				<defs>
					
						<rect id="SVGID_9_" x="-688.3" y="328.4" transform="matrix(0.9994 -3.383328e-02 3.383328e-02 0.9994 -11.7087 -17.4442)" width="334" height="17.6"/>
				</defs>
				<clipPath id="SVGID_10_">
					<use xlink:href="#SVGID_9_"  style="overflow:visible;"/>
				</clipPath>
				<g class="st11">
					<g>
						<defs>
							<rect id="SVGID_11_" x="-820.9" y="-12.3" width="1024" height="768"/>
						</defs>
						<clipPath id="SVGID_12_">
							<use xlink:href="#SVGID_11_"  style="overflow:visible;"/>
						</clipPath>
						<path class="st12" d="M-687.3,335.8c56.4-2,113.9-7,168.8,0c45.9,5.8,119.7-12.5,163.1,3.4"/>
					</g>
				</g>
			</g>
		</g>
	</g>
</g>
<g>
	<g>
		<defs>
			<polygon id="SVGID_13_" points="-688.5,463.7 -354.2,474.3 -353.5,455.5 -687.9,444.9 			"/>
		</defs>
		<clipPath id="SVGID_14_">
			<use xlink:href="#SVGID_13_"  style="overflow:visible;"/>
		</clipPath>
		<g class="st13">
			<g>
				<defs>
					<polygon id="SVGID_15_" points="-687.9,444.9 -353.5,455.5 -354.2,474.3 -688.5,463.7 					"/>
				</defs>
				<clipPath id="SVGID_16_">
					<use xlink:href="#SVGID_15_"  style="overflow:visible;"/>
				</clipPath>
				<g class="st14">
					<g>
						<defs>
							<rect id="SVGID_17_" x="-1266.5" y="-216.4" width="1024" height="768"/>
						</defs>
						<clipPath id="SVGID_18_">
							<use xlink:href="#SVGID_17_"  style="overflow:visible;"/>
						</clipPath>
						<path class="st15" d="M-687.5,462.7c74.6,2.6,148.8,6.8,222.6-2.4c27-3.3,82.3-4.8,110.3-3.9"/>
					</g>
				</g>
			</g>
		</g>
	</g>
</g>
<path class="st1" d="M-2037.8-0.8c-0.8,0.3-3.3,0.3-4.6,0.1c-10.4-1-20.9-1.9-31.3-2.3c-17.3-0.6-34.6-0.7-51.9-1
	c-23.3-0.4-46.5-2.8-69.6-5.6c-34.2-4.1-67.7-12.7-102.2-15.7c-23.5-2.1-46.6-1.6-69.3,4.5c-14.7,4-29.6,8.1-42.3,17.3
	c-6,4.4-10.6,10.1-16.2,14.8c-4.4,3.7-9,5.3-14.7,4.8c-9.4-0.8-17.2-6-25.6-9.6c-1.8-0.8-3-1.8-3.7-3.1v54.2
	c102.7,0.7,51.8,0.6,102.7,0.8c148.1,0.5,0,0,148.1,0.5c23.2,0.1-3.8,0,181.3,0.4L-2037.8-0.8z"/>
</svg>
